slave.vcd
$date
	Sun Jul 12 18:51:40 2026
$end
$version
	Icarus Verilog
$end
$timescale
	1ps
$end
$scope module slave_tb $end
$var wire 1 ! HResp $end
$var wire 1 " HReadyOut $end
$var wire 32 # HRdata [31:0] $end
$var parameter 32 $ AddressWidth $end
$var parameter 3 % BYTE $end
$var parameter 32 & BaseAddr $end
$var parameter 32 ' Burst $end
$var parameter 32 ( DataWidth $end
$var parameter 32 ) Depth $end
$var parameter 3 * HALFWORD $end
$var parameter 2 + NONSEQ $end
$var parameter 32 , Prot $end
$var parameter 2 - SEQ $end
$var parameter 32 . Size $end
$var parameter 32 / Transfer $end
$var parameter 3 0 WORD $end
$var reg 32 1 HAddr [31:0] $end
$var reg 3 2 HBurst [2:0] $end
$var reg 1 3 HClk $end
$var reg 1 4 HMastlock $end
$var reg 4 5 HProt [3:0] $end
$var reg 1 6 HReady $end
$var reg 1 7 HResetn $end
$var reg 1 8 HSel $end
$var reg 3 9 HSize [2:0] $end
$var reg 2 : HTrans [1:0] $end
$var reg 32 ; HWdata [31:0] $end
$var reg 1 < HWrite $end
$var integer 32 = fail_count [31:0] $end
$var integer 32 > mem_head [31:0] $end
$var integer 32 ? mem_tail [31:0] $end
$var integer 32 @ pass_count [31:0] $end
$scope module S_DUT $end
$var wire 32 A HAddr [31:0] $end
$var wire 3 B HBurst [2:0] $end
$var wire 1 3 HClk $end
$var wire 1 4 HMastlock $end
$var wire 4 C HProt [3:0] $end
$var wire 32 D HRdata [31:0] $end
$var wire 1 6 HReady $end
$var wire 1 " HReadyOut $end
$var wire 1 7 HResetn $end
$var wire 1 ! HResp $end
$var wire 1 8 HSel $end
$var wire 3 E HSize [2:0] $end
$var wire 2 F HTrans [1:0] $end
$var wire 32 G HWdata [31:0] $end
$var wire 1 < HWrite $end
$var wire 1 H addr_in_range $end
$var wire 1 I misaligned $end
$var wire 1 J valid_transfer $end
$var wire 32 K offset [31:0] $end
$var parameter 32 L AddressWidth $end
$var parameter 3 M BYTE $end
$var parameter 3 N BYTE_1024 $end
$var parameter 3 O BYTE_256 $end
$var parameter 3 P BYTE_512 $end
$var parameter 32 Q BaseAddr $end
$var parameter 32 R Burst $end
$var parameter 32 S Byte_width $end
$var parameter 3 T DOUBLEWORD $end
$var parameter 32 U DataWidth $end
$var parameter 32 V Depth $end
$var parameter 3 W HALFWORD $end
$var parameter 2 X IDLE $end
$var parameter 2 Y NONSEQ $end
$var parameter 32 Z Prot $end
$var parameter 3 [ QUADWORD $end
$var parameter 1 \ RESP_ERR2 $end
$var parameter 1 ] RESP_IDLE $end
$var parameter 2 ^ SEQ $end
$var parameter 32 _ Size $end
$var parameter 32 ` Transfer $end
$var parameter 3 a WORD $end
$var reg 8 b DataSize [7:0] $end
$var reg 32 c HAddrL [31:0] $end
$var reg 3 d HBurstL [2:0] $end
$var reg 1 e HMastlockL $end
$var reg 4 f HProtL [3:0] $end
$var reg 32 g HRdata_reg [31:0] $end
$var reg 1 h HReadyL $end
$var reg 1 i HReadyOut_reg $end
$var reg 1 j HResp_reg $end
$var reg 1 k HSelL $end
$var reg 3 l HSizeL [2:0] $end
$var reg 2 m HTransL [1:0] $end
$var reg 1 n HWriteL $end
$var reg 1 o next_state $end
$var reg 1 p state $end
$upscope $end
$scope task checkRead $end
$var reg 32 q DataRead [31:0] $end
$var reg 32 r DataToCompare [31:0] $end
$upscope $end
$scope task checkWrite $end
$var reg 8 s DataInMem [7:0] $end
$upscope $end
$scope task clear_mem $end
$var integer 32 t i [31:0] $end
$upscope $end
$scope task push_ref $end
$var reg 8 u write_data [7:0] $end
$upscope $end
$upscope $end
$enddefinitions $end
$comment Show the parameter values. $end
$dumpall
b10 a
b100 `
b1000 _
b11 ^
0]
1\
b100 [
b100 Z
b10 Y
b0 X
b1 W
b10000000000 V
b100000 U
b11 T
b1000 S
b1000 R
b0 Q
b110 P
b101 O
b111 N
b0 M
b100000 L
b10 0
b100 /
b1000 .
b11 -
b100 ,
b10 +
b1 *
b10000000000 )
b100000 (
b1000 '
b0 &
b0 %
b100000 $
$end
#0
$dumpvars
bx u
bx t
bx s
bx r
bx q
0p
0o
0n
b0 m
b0 l
0k
0j
1i
1h
b0 g
b1100 f
0e
b0 d
b0 c
b1 b
b0 K
0J
0I
1H
bx G
b10 F
b0 E
b0 D
b1100 C
b0 B
bx A
b0 @
b0 ?
b0 >
b0 =
x<
bx ;
b10 :
b0 9
18
07
16
b1100 5
04
03
b0 2
bx 1
b0 #
1"
0!
$end
#5000
13
#10000
03
#15000
13
b1 @
#20000
03
#25000
13
#30000
03
#35000
13
#40000
03
#45000
13
#50000
03
#55000
13
#60000
03
#65000
13
#70000
03
#75000
13
#80000
03
#85000
13
#90000
03
#95000
13
#100000
03
#105000
13
#110000
03
#115000
13
#120000
03
#125000
13
#130000
03
#135000
13
#140000
03
#145000
13
#150000
03
#155000
13
#160000
03
#165000
13
#170000
03
#175000
13
#180000
03
#185000
13
#190000
03
#195000
13
#200000
03
#205000
13
#210000
03
#215000
13
#220000
17
03
#225000
xo
1J
xH
b0xxxxxxxx #
b0xxxxxxxx D
b0xxxxxxxx g
xn
b10 m
bx K
bx c
1k
13
#230000
03
#235000
0o
xp
13
#240000
1<
b1 ?
b1111000 u
b1111000 ;
b1111000 G
b0 1
b0 A
03
#245000
1H
0p
1n
b0 K
b0 c
13
#250000
03
#255000
13
#260000
03
#265000
13
#270000
03
#275000
13
#280000
03
b1 >
b10 @
b1111000 s
